{
    "count": 37,
    "next": "http://swapi.co/api/species/?page=4",
    "previous": "http://swapi.co/api/species/?page=2",
    "results": [
        {
            "name": "Quermian",
            "classification": "mammal",
            "designation": "sentient",
            "average_height": "240",
            "skin_colors": "white",
            "hair_colors": "none",
            "eye_colors": "yellow",
            "average_lifespan": "86",
            "homeworld": "http://swapi.co/api/planets/48/",
            "language": "Quermian",
            "people": [
                "http://swapi.co/api/people/57/"
            ],
            "films": [
                "http://swapi.co/api/films/4/",
                "http://swapi.co/api/films/6/"
            ],
            "created": "2014-12-20T10:34:50.827000Z",
            "edited": "2014-12-20T21:36:42.189000Z",
            "url": "http://swapi.co/api/species/25/"
        },
        {
            "name": "Kel Dor",
            "classification": "unknown",
            "designation": "sentient",
            "average_height": "180",
            "skin_colors": "peach, orange, red",
            "hair_colors": "none",
            "eye_colors": "black, silver",
            "average_lifespan": "70",
            "homeworld": "http://swapi.co/api/planets/49/",
            "language": "Kel Dor",
            "people": [
                "http://swapi.co/api/people/58/"
            ],
            "films": [
                "http://swapi.co/api/films/4/",
                "http://swapi.co/api/films/6/"
            ],
            "created": "2014-12-20T10:49:21.692000Z",
            "edited": "2014-12-20T21:36:42.191000Z",
            "url": "http://swapi.co/api/species/26/"
        },
        {
            "name": "Chagrian",
            "classification": "amphibian",
            "designation": "sentient",
            "average_height": "190",
            "skin_colors": "blue",
            "hair_colors": "none",
            "eye_colors": "blue",
            "average_lifespan": "unknown",
            "homeworld": "http://swapi.co/api/planets/50/",
            "language": "Chagria",
            "people": [
                "http://swapi.co/api/people/59/"
            ],
            "films": [
                "http://swapi.co/api/films/4/",
                "http://swapi.co/api/films/6/"
            ],
            "created": "2014-12-20T10:53:28.795000Z",
            "edited": "2014-12-20T21:36:42.193000Z",
            "url": "http://swapi.co/api/species/27/"
        },
        {
            "name": "Geonosian",
            "classification": "insectoid",
            "designation": "sentient",
            "average_height": "178",
            "skin_colors": "green, brown",
            "hair_colors": "none",
            "eye_colors": "green, hazel",
            "average_lifespan": "unknown",
            "homeworld": "http://swapi.co/api/planets/11/",
            "language": "Geonosian",
            "people": [
                "http://swapi.co/api/people/63/"
            ],
            "films": [
                "http://swapi.co/api/films/5/",
                "http://swapi.co/api/films/6/"
            ],
            "created": "2014-12-20T16:40:45.618000Z",
            "edited": "2014-12-20T21:36:42.195000Z",
            "url": "http://swapi.co/api/species/28/"
        },
        {
            "name": "Mirialan",
            "classification": "mammal",
            "designation": "sentient",
            "average_height": "180",
            "skin_colors": "yellow, green",
            "hair_colors": "black, brown",
            "eye_colors": "blue, green, red, yellow, brown, orange",
            "average_lifespan": "unknown",
            "homeworld": "http://swapi.co/api/planets/51/",
            "language": "Mirialan",
            "people": [
                "http://swapi.co/api/people/64/",
                "http://swapi.co/api/people/65/"
            ],
            "films": [
                "http://swapi.co/api/films/5/",
                "http://swapi.co/api/films/6/"
            ],
            "created": "2014-12-20T16:46:48.290000Z",
            "edited": "2014-12-20T21:36:42.197000Z",
            "url": "http://swapi.co/api/species/29/"
        },
        {
            "name": "Clawdite",
            "classification": "reptilian",
            "designation": "sentient",
            "average_height": "180",
            "skin_colors": "green, yellow",
            "hair_colors": "none",
            "eye_colors": "yellow",
            "average_lifespan": "70",
            "homeworld": "http://swapi.co/api/planets/54/",
            "language": "Clawdite",
            "people": [
                "http://swapi.co/api/people/70/"
            ],
            "films": [
                "http://swapi.co/api/films/5/",
                "http://swapi.co/api/films/6/"
            ],
            "created": "2014-12-20T16:57:46.171000Z",
            "edited": "2014-12-20T21:36:42.199000Z",
            "url": "http://swapi.co/api/species/30/"
        },
        {
            "name": "Besalisk",
            "classification": "amphibian",
            "designation": "sentient",
            "average_height": "178",
            "skin_colors": "brown",
            "hair_colors": "none",
            "eye_colors": "yellow",
            "average_lifespan": "75",
            "homeworld": "http://swapi.co/api/planets/55/",
            "language": "besalisk",
            "people": [
                "http://swapi.co/api/people/71/"
            ],
            "films": [
                "http://swapi.co/api/films/5/"
            ],
            "created": "2014-12-20T17:28:28.821000Z",
            "edited": "2014-12-20T21:36:42.200000Z",
            "url": "http://swapi.co/api/species/31/"
        },
        {
            "name": "Kaminoan",
            "classification": "amphibian",
            "designation": "sentient",
            "average_height": "220",
            "skin_colors": "grey, blue",
            "hair_colors": "none",
            "eye_colors": "black",
            "average_lifespan": "80",
            "homeworld": "http://swapi.co/api/planets/10/",
            "language": "Kaminoan",
            "people": [
                "http://swapi.co/api/people/72/",
                "http://swapi.co/api/people/73/"
            ],
            "films": [
                "http://swapi.co/api/films/5/"
            ],
            "created": "2014-12-20T17:31:24.838000Z",
            "edited": "2014-12-20T21:36:42.202000Z",
            "url": "http://swapi.co/api/species/32/"
        },
        {
            "name": "Skakoan",
            "classification": "mammal",
            "designation": "sentient",
            "average_height": "unknown",
            "skin_colors": "grey, green",
            "hair_colors": "none",
            "eye_colors": "unknown",
            "average_lifespan": "unknown",
            "homeworld": "http://swapi.co/api/planets/56/",
            "language": "Skakoan",
            "people": [
                "http://swapi.co/api/people/76/"
            ],
            "films": [
                "http://swapi.co/api/films/5/",
                "http://swapi.co/api/films/6/"
            ],
            "created": "2014-12-20T17:53:54.515000Z",
            "edited": "2014-12-20T21:36:42.204000Z",
            "url": "http://swapi.co/api/species/33/"
        },
        {
            "name": "Muun",
            "classification": "mammal",
            "designation": "sentient",
            "average_height": "190",
            "skin_colors": "grey, white",
            "hair_colors": "none",
            "eye_colors": "black",
            "average_lifespan": "100",
            "homeworld": "http://swapi.co/api/planets/57/",
            "language": "Muun",
            "people": [
                "http://swapi.co/api/people/77/"
            ],
            "films": [
                "http://swapi.co/api/films/5/",
                "http://swapi.co/api/films/6/"
            ],
            "created": "2014-12-20T17:58:19.088000Z",
            "edited": "2014-12-20T21:36:42.207000Z",
            "url": "http://swapi.co/api/species/34/"
        }
    ]
}
