{
  "count": 61,
  "next": "http://swapi.co/api/planets/?page=2",
  "previous": null,
  "results": [{
      "name": "Tatooine",
      "rotation_period": "23",
      "orbital_period": "304",
      "diameter": "10465",
      "climate": "arid",
      "gravity": "1 standard",
      "terrain": "desert",
      "surface_water": "1",
      "population": "200000",
      "residents": [
        "http://swapi.co/api/people/1/",
        "http://swapi.co/api/people/2/",
        "http://swapi.co/api/people/4/",
        "http://swapi.co/api/people/6/",
        "http://swapi.co/api/people/7/",
        "http://swapi.co/api/people/8/",
        "http://swapi.co/api/people/9/",
        "http://swapi.co/api/people/11/",
        "http://swapi.co/api/people/43/",
        "http://swapi.co/api/people/62/"
      ],
      "films": [
        "http://swapi.co/api/films/5/",
        "http://swapi.co/api/films/4/",
        "http://swapi.co/api/films/6/",
        "http://swapi.co/api/films/3/",
        "http://swapi.co/api/films/1/"
      ],
      "created": "2014-12-09T13:50:49.641000Z",
      "edited": "2014-12-21T20:48:04.175778Z",
      "url": "http://swapi.co/api/planets/1/"
    },
    {
      "name": "Naboo",
      "rotation_period": "26",
      "orbital_period": "312",
      "diameter": "12120",
      "climate": "temperate",
      "gravity": "1 standard",
      "terrain": "grassy hills, swamps, forests, mountains",
      "surface_water": "12",
      "population": "4500000000",
      "residents": [
        "http://swapi.co/api/people/3/",
        "http://swapi.co/api/people/21/",
        "http://swapi.co/api/people/36/",
        "http://swapi.co/api/people/37/",
        "http://swapi.co/api/people/38/",
        "http://swapi.co/api/people/39/",
        "http://swapi.co/api/people/42/",
        "http://swapi.co/api/people/60/",
        "http://swapi.co/api/people/61/",
        "http://swapi.co/api/people/66/",
        "http://swapi.co/api/people/35/"
      ],
      "films": [
        "http://swapi.co/api/films/5/",
        "http://swapi.co/api/films/4/",
        "http://swapi.co/api/films/6/",
        "http://swapi.co/api/films/3/"
      ],
      "created": "2014-12-10T11:52:31.066000Z",
      "edited": "2014-12-20T20:58:18.430000Z",
      "url": "http://swapi.co/api/planets/8/"
    }
  ]
}
